{
	"semantics::set-element-type": {
		"steps": {
			"type": "operation/set-attributes",
			"data": {
				"contextNodeId": "{{contextNodeId}}",
				"attributes": {
					"class": "{{type}}"
				}
			}
		}
	},
	"semantics::create-span-and-set-type": {
		"steps": [
			{
				"type": "transform/setContextNodeIdToSelectionAncestor",
				"data": {
					"selectionAncestorNodeSpec": "self::h1 or self::caption or self::figcaption or self::p or self::span or self::a"
				}
			},
			{
				"type": "operation/wrap-selection-in-structure",
				"data": {
					"allowNesting": true,
					"contextNodeId": "{{contextNodeId}}",
					"childNodeStructure": [
						"span",
						{ "class": "{{type}}" },
						[{ "bindTo": "selection.start", "empty": true }],
						[{ "bindTo": "transclude", "multiple": true, "required": false }],
						[{ "bindTo": "selection.end", "empty": true }]
					]
				}
			}
		]
	},
	"semantics::create-div-and-set-type": {
		"steps": [
			{
				"type": "transform/setContextNodeIdToSelectionAncestor",
				"data": {
					"selectionAncestorNodeSpec": "self::body or self::div or self::figure or self::li or self::section or self::td or self::th"
				}
			},
			{
				"type": "operation/wrap-selection-in-structure",
				"data": {
					"allowNesting": true,
					"contextNodeId": "{{contextNodeId}}",
					"childNodeStructure": [
						"div",
						{ "class": "{{type}}" },
						[{ "bindTo": "selection.start", "empty": true }],
						[{ "bindTo": "transclude", "multiple": true, "required": false }],
						[{ "bindTo": "selection.end", "empty": true }]
					]
				}
			}
		]
	}
}
