{
	"open-save-to-section-fragment-modal": {
		"label": "t__Save section as fragment",
		"icon": "shapes",
		"steps": { "type": "action/save-section-to-fragment" }
	},
	"edit-section-fragment": {
		"label": "t__Edit fragment",
		"icon": "edit",
		"steps": { "type": "action/edit-section-fragment" }
	},
	"AUXILIAR-OPEN-DOCUMENT-ONLY-FOR-TESTING-PURPOSES": {
		"label": "t__OPEN DOCUMENT",
		"steps": [
			{
				"type": "operation/open-open-or-create-document-browser-modal",
				"data": {
					"modalPrimaryButtonLabel": "t__Open"
				}
			},
			{
				"type": "action/goToEditorRouteWithDocument"
			}
		]
	}
}
